{
    "@context": ["https://www.w3.org/ns/activitystreams"],
    "$$meta": {
        "id": "<?cs var:json_escape(id) ?>",
        "domain": "<?cs var:json_escape(server_name) ?>"
    },
    "id": "https://<?cs var:json_escape(server_name) ?>/actor.json?id=<?cs var:json_escape(id) ?>",
    "type": "Person",
    "inbox": "https://<?cs var:json_escape(server_name) ?>/inbox.json?id=<?cs var:json_escape(id) ?>",
    "outbox": "https://<?cs var:json_escape(server_name) ?>/outbox.json?id=<?cs var:json_escape(id) ?>",
    "followers": "https://<?cs var:json_escape(server_name) ?>/followers.json?id=<?cs var:json_escape(id) ?>",
    "following": "https://<?cs var:json_escape(server_name) ?>/following.json?id=<?cs var:json_escape(id) ?>",
    "liked": "https://<?cs var:json_escape(server_name) ?>/liked.json?id=<?cs var:json_escape(id) ?>",
    "url": "https://<?cs var:json_escape(server_name) ?>/web/user?username=<?cs var:json_escape(username) ?>",
    "preferredUsername": "<?cs var:json_escape(username) ?>",
    "publicKey": {
        "id": "https://<?cs var:json_escape(server_name) ?>/actor.json?id=<?cs var:json_escape(id) ?>#main",
        "owner": "https://<?cs var:json_escape(server_name) ?>/actor.json?id=<?cs var:json_escape(id) ?>",
        "publicKeyPem": "<?cs var:json_escape(public_key) ?>"
    },
    "endpoints": {
        "sharedInbox": "https://<?cs var:json_escape(server_name) ?>/shared_inbox.json"
    }
}
