{
    "$$meta": {
        "id": "<?cs var:json_escape(id) ?>"
    },
    "username": "<?cs var:json_escape(username) ?>",
    "actor": "https://<?cs var:json_escape(server_name) ?>/actor.json?id=<?cs var:json_escape(id) ?>",
    "password": "<?cs var:json_escape(password) ?>",
    "private_key": "<?cs var:json_escape(private_key) ?>"
}
