{
    "subject": "<?cs var:json_escape(resource) ?>",
    "links": [
        {
            "type": "application/activity+json",
            "rel": "self",
            "href": "<?cs var:json_escape(user.id) ?>"
        },
        {
            "type": "application/ld+json; profile=\"https://www.w3.org/ns/activitystreams\"",
            "rel": "self",
            "href": "<?cs var:json_escape(user.id) ?>"
        }
    ]
}
